Tie_link light/Tie_link_light.sim/sim_1/behav/xsim/simulate.log
Time resolution is 1 ps
Starting Tie Link Protocol Simulation...
Time=0 | CPU WriteEn=0, ReadEn=0, Addr=00, WData=00, RData=00, Ready=x
Time=5000 | CPU WriteEn=0, ReadEn=0, Addr=00, WData=00, RData=00, Ready=0
Time=15000 | CPU WriteEn=1, ReadEn=0, Addr=05, WData=a5, RData=00, Ready=0
Time=25000 | CPU WriteEn=1, ReadEn=0, Addr=05, WData=a5, RData=00, Ready=1
Time=35000 | CPU WriteEn=0, ReadEn=0, Addr=05, WData=a5, RData=00, Ready=1
Time=45000 | CPU WriteEn=0, ReadEn=1, Addr=05, WData=a5, RData=00, Ready=0
Time=55000 | CPU WriteEn=0, ReadEn=1, Addr=05, WData=a5, RData=00, Ready=1
Time=65000 | CPU WriteEn=0, ReadEn=0, Addr=05, WData=a5, RData=a5, Ready=1
Time=75000 | CPU WriteEn=0, ReadEn=0, Addr=05, WData=a5, RData=a5, Ready=0

--- Simulating PUT_PARTIAL_DATA ---
Time=110000 | CPU WriteEn=1, ReadEn=0, Addr=0a, WData=f0, RData=a5, Ready=0
Time=115000 | CPU WriteEn=1, ReadEn=0, Addr=0a, WData=f0, RData=a5, Ready=1
Time=120000 | CPU WriteEn=0, ReadEn=0, Addr=0a, WData=f0, RData=a5, Ready=1
Time=125000 | CPU WriteEn=0, ReadEn=0, Addr=0a, WData=f0, RData=a5, Ready=0
ACCESS_ACK received after PUT_PARTIAL_DATA

--- Simulating GET ---
Time=130000 | CPU WriteEn=0, ReadEn=1, Addr=0a, WData=f0, RData=a5, Ready=0
Time=135000 | CPU WriteEn=0, ReadEn=1, Addr=0a, WData=f0, RData=a5, Ready=1
ACCESS_ACK_DATA: RData = a5
Time=140000 | CPU WriteEn=0, ReadEn=0, Addr=0a, WData=f0, RData=a5, Ready=1
Time=145000 | CPU WriteEn=0, ReadEn=0, Addr=0a, WData=f0, RData=a5, Ready=0

Simulation completed.
$finish called at time : 160 ns : File "D:/vivado files/Tie-link/Tie_link light/Tie_link_light.srcs/sim_1/new/tb_top_tielink.v" Line 56
Starting Tie Link Protocol Simulation...
Time=0 | CPU WriteEn=0, ReadEn=0, Addr=00, WData=00, RData=00, Ready=x
Time=5000 | CPU WriteEn=0, ReadEn=0, Addr=00, WData=00, RData=00, Ready=0
Time=15000 | CPU WriteEn=1, ReadEn=0, Addr=05, WData=a5, RData=00, Ready=0
Time=25000 | CPU WriteEn=1, ReadEn=0, Addr=05, WData=a5, RData=00, Ready=1
Time=35000 | CPU WriteEn=0, ReadEn=0, Addr=05, WData=a5, RData=00, Ready=1
Time=45000 | CPU WriteEn=0, ReadEn=1, Addr=05, WData=a5, RData=00, Ready=0
Time=55000 | CPU WriteEn=0, ReadEn=1, Addr=05, WData=a5, RData=00, Ready=1
Time=65000 | CPU WriteEn=0, ReadEn=0, Addr=05, WData=a5, RData=a5, Ready=1
Time=75000 | CPU WriteEn=0, ReadEn=0, Addr=05, WData=a5, RData=a5, Ready=0

--- Simulating PUT_PARTIAL_DATA ---
Time=110000 | CPU WriteEn=1, ReadEn=0, Addr=0a, WData=f0, RData=a5, Ready=0
Time=115000 | CPU WriteEn=1, ReadEn=0, Addr=0a, WData=f0, RData=a5, Ready=1
Time=120000 | CPU WriteEn=0, ReadEn=0, Addr=0a, WData=f0, RData=a5, Ready=1
Time=125000 | CPU WriteEn=0, ReadEn=0, Addr=0a, WData=f0, RData=a5, Ready=0
ACCESS_ACK received after PUT_PARTIAL_DATA

--- Simulating GET ---
Time=130000 | CPU WriteEn=0, ReadEn=1, Addr=0a, WData=f0, RData=a5, Ready=0
Time=135000 | CPU WriteEn=0, ReadEn=1, Addr=0a, WData=f0, RData=a5, Ready=1
ACCESS_ACK_DATA: RData = a5
Time=140000 | CPU WriteEn=0, ReadEn=0, Addr=0a, WData=f0, RData=a5, Ready=1
Time=145000 | CPU WriteEn=0, ReadEn=0, Addr=0a, WData=f0, RData=a5, Ready=0

Simulation completed.
$finish called at time : 160 ns : File "D:/vivado files/Tie-link/Tie_link light/Tie_link_light.srcs/sim_1/new/tb_top_tielink.v" Line 56
